{
    "http-basic": {
        "composer.deliciousbrains.com": {
            "username": "19C108B66CC37F055FB434097C98606F",
            "password": "64A0EE7545AD0EE2448C889EFA600D5A"
        }
    }
}
